D:\quangphamm\eclipse-workspace\Automation\src\test\java\TestCase\test1.java
D:\quangphamm\eclipse-workspace\Automation\src\test\java\module\SignInFlow.java
D:\quangphamm\eclipse-workspace\Automation\src\test\java\pageObjects\Home.java
